Jon Minton’s Blog - A brief introduction to bootstrapping
…
── Attaching core tidyverse packages ──────────────────────── tidyverse 2.0.0 ──
✔ dplyr     1.1.4     ✔ readr     2.1.6
✔ forcats   1.0.1     ✔ stringr   1.6.0
✔ ggplot2   4.0.0     ✔ tibble    3.3.0
✔ lubridate 1.9.4     ✔ tidyr     1.3.1
✔ purrr     1.2.0     
── Conflicts ────────────────────────────────────────── tidyverse_conflicts() ──
✖ dplyr::filter() masks stats::filter()
✖ dplyr::lag()    masks stats::lag()
ℹ Use the conflicted package (<http://conflicted.r-lib.org/>) to force all conflicts to become errors

df <- ToothGrowth |> tibble()
df

# A tibble: 60 × 3
     len supp   dose
   <dbl> <fct> <dbl>
 1   4.2 VC      0.5
 2  11.5 VC      0.5
 3   7.3 VC      0.5
 4   5.8 VC      0.5
 5   6.4 VC      0.5
 6  10   VC      0.5
 7  11.2 VC      0.5
 8  11.2 VC      0.5
 9   5.2 VC      0.5
10   7   VC      0.5
# ℹ 50 more rows
…
