Jon Minton’s Blog - Tidy Tuesday on Dr Who
…
dta_eps_wrt <- 
  dta_eps |> 
    left_join(dta_wrt, by = "story_number") 

How many episodes by writer?

dta_eps_wrt |> 
  group_by(writer) |>  
  summarise(
    n_written = n()
  ) |> 
  ungroup() |> 
  arrange(desc(n_written))

# A tibble: 40 × 2
   writer           n_written
   <chr>                <int>
 1 Steven Moffat           45
 2 Russell T Davies        31
 3 Chris Chibnall          29
 4 Mark Gatiss              9
 5 Toby Whithouse           7
 6 Gareth Roberts           5
 7 Helen Raynor             4
 8 Jamie Mathieson          4
 9 Peter Harness            4
10 Matthew Graham           3
# ℹ 30 more rows
…
