Jon Minton’s Blog - Part Thirteen: On Marbles and Jumping Beans
…
However there are also an increasingly large number of Bayesian modelling packages that abstract away some of the assumptions and complexity apparent in the above specialised Bayesian modelling languages, and allow Bayesian versions of the kinds of model we’re already familiar with to be specified using formulae interfaces almost identical to what we’ve already worked with. Let’s look at one of them, rstanarm, which allows us to use stan, a full Bayesian statistical programming language, without quite as much thinking and set-up being required on our part.

Let’s try to use this to build a Bayesian equivalent of the hamster tooth model we worked on in the last couple of posts.

Data Preparation and Frequentist modelling

Let’s start by getting the dataset and building the frequentist version of the model we’re already familiar with:

Code

library(tidyverse)
df <- ToothGrowth |> tibble()
df

# A tibble: 60 × 3
     len supp   dose
   <dbl> <fct> <dbl>
 1   4.2 VC      0.5
 2  11.5 VC      0.5
 3   7.3 VC      0.5
 4   5.8 VC      0.5
 5   6.4 VC      0.5
 6  10   VC      0.5
 7  11.2 VC      0.5
 8  11.2 VC      0.5
 9   5.2 VC      0.5
10   7   VC      0.5
# ℹ 50 more rows
…
