Jon Minton’s Blog - Tidy Tuesday: 20 Feb 2024 - R Grants
…
# tuesdata <- tidytuesdayR::tt_load('2024-02-20')
# ## OR
# tuesdata <- tidytuesdayR::tt_load(2024, week = 8)
 
# isc_grants <- tuesdata$isc_grants
 
# Option 2: Read directly from GitHub
 
isc_grants <- readr::read_csv('https://raw.githubusercontent.com/rfordatascience/tidytuesday/master/data/2024/2024-02-20/isc_grants.csv')
 
isc_grants

# A tibble: 85 × 7
    year group title                          funded proposed_by summary website
   <dbl> <dbl> <chr>                           <dbl> <chr>       <chr>   <chr>  
 1  2023     1 The future of DBI (extension …  10000 "Kirill Mü… "This … <NA>   
 2  2023     1 Secure TLS Communications for…  10000 "Charlie G… "The p… <NA>   
 3  2023     1 volcalc: Calculate predicted …  12265 "Kristina … "This … <NA>   
 4  2023     1 autotest: Automated testing o…   3000 "Mark Padg… "The p… <NA>   
 5  2023     1 api2r: An R Package for Auto-…  15750 "Jon Harmo… "This … <NA>   
 6  2022     2 D3po: R Package for Easy Inte…   8000 "Mauricio … "The D… <NA>   
 7  2022     2 Tooling and Guidance for Tran…   8000 "Maëlle Sa… "Tooli… <NA>   
 8  2022     2 Online Submission and Review …  22000 "Simon Urb… "The O… <NA>   
 9  2022     2 Upgrading SatRdays Website Te…   6000 "Ben Ubah"  "The U… <NA>   
10  2022     2 Building the “Spatial Data Sc…  25000 "Orhun Ayd… "The B… <NA>   
# ℹ 75 more rows
…
Brendan offered the following code chunk to explore the content of the free text summary field in the dataset:

Code

#install.packages("tidytext")
#install.packages("SnowballC")
library(tidytext)
library(SnowballC) # for wordStem
 
isc_grants |>
  unnest_tokens(word, summary) |>
  anti_join(get_stopwords()) |>
  mutate(stem = wordStem(word))

# A tibble: 6,242 × 8
    year group title                      funded proposed_by website word  stem 
   <dbl> <dbl> <chr>                       <dbl> <chr>       <chr>   <chr> <chr>
 1  2023     1 The future of DBI (extens…  10000 Kirill Mül… <NA>    prop… prop…
 2  2023     1 The future of DBI (extens…  10000 Kirill Mül… <NA>    most… most…
 3  2023     1 The future of DBI (extens…  10000 Kirill Mül… <NA>    focu… focus
 4  2023     1 The future of DBI (extens…  10000 Kirill Mül… <NA>    main… main…
 5  2023     1 The future of DBI (extens…  10000 Kirill Mül… <NA>    supp… supp…
 6  2023     1 The future of DBI (extens…  10000 Kirill Mül… <NA>    dbi   dbi  
 7  2023     1 The future of DBI (extens…  10000 Kirill Mül… <NA>    dbit… dbit…
 8  2023     1 The future of DBI (extens…  10000 Kirill Mül… <NA>    test  test 
 9  2023     1 The future of DBI (extens…  10000 Kirill Mül… <NA>    suite suit 
10  2023     1 The future of DBI (extens…  10000 Kirill Mül… <NA>    three three
# ℹ 6,232 more rows
…
