Jon Minton’s Blog - Tidy Tuesday Extra - Packages and recursive searching
…
    Downloading file 1 of 2: `shiny_revdeps.csv`
    Downloading file 2 of 2: `package_details.csv`

Warning: One or more parsing issues, call `problems()` on your data frame for details,
e.g.:
  dat <- vroom(...)
  problems(dat)

--- Download complete ---

dta_main <- dta_list$shiny_revdeps
dta_main

# A tibble: 146,135 × 3
   child              dependency_type parent
   <chr>              <chr>           <chr> 
 1 AFheritability     depends         shiny 
 2 AMPLE              depends         shiny 
 3 animalEKF          depends         shiny 
 4 bde                depends         shiny 
 5 BDP2               depends         shiny 
 6 BoneProfileR       depends         shiny 
 7 clinDR             depends         shiny 
 8 CLME               depends         shiny 
 9 cocktailApp        depends         shiny 
10 competitiontoolbox depends         shiny 
# ℹ 146,125 more rows
…
dta_main %>% 
  filter(parent == "shiny") |>
  filter(child == "shiny")

# A tibble: 0 × 3
# ℹ 3 variables: child <chr>, dependency_type <chr>, parent <chr>

No, fortunately.

Does the dataset contain examples where shiny is neither the parent nor the child?

dta_main |>
  filter(parent != "shiny" & child != "shiny")

# A tibble: 144,928 × 3
   child                 dependency_type parent  
   <chr>                 <chr>           <chr>   
 1 FAMetA                depends         LipidMS 
 2 teal.modules.clinical depends         teal    
 3 teal.modules.general  depends         teal    
 4 dartR                 depends         adegenet
 5 dartR.base            depends         adegenet
 6 dartR.captive         depends         adegenet
 7 dartR.data            depends         adegenet
 8 dartR.popgen          depends         adegenet
 9 dartR.sim             depends         adegenet
10 dartR.spatial         depends         adegenet
# ℹ 144,918 more rows
…
