Jon Minton’s Blog - Tidy Tuesday 27 Feb 2024: Leap Years
…
# A tibble: 1 × 4
  year_death person        description year_birth
       <dbl> <chr>         <chr>            <dbl>
1        468 Pope Hilarius <NA>                NA

The only persons with pope in their name appear to be actual popes, not people who just happen to have the letters ‘pope’ in their surname.

Next we looked at number of events by year. We used two tidyverse approaches to producing this, one using group_by and summarise, the other using count.

number_events <- events %>% 
  group_by(year) %>% 
  summarise(n= n())
number_events

# A tibble: 29 × 2
    year     n
   <dbl> <int>
 1   888     1
 2  1504     1
 3  1644     1
 4  1704     1
 5  1712     1
 6  1720     1
 7  1768     1
 8  1796     1
 9  1892     1
10  1908     1
# ℹ 19 more rows

number_events_2 <- events %>% 
  count(year)
number_events_2

# A tibble: 29 × 2
    year     n
   <dbl> <int>
 1   888     1
 2  1504     1
 3  1644     1
 4  1704     1
 5  1712     1
 6  1720     1
 7  1768     1
 8  1796     1
 9  1892     1
10  1908     1
# ℹ 19 more rows
…
One person (born in Scotland!)

We then looked text analysis, and in particular sentiment analysis of the content of the descriptio field:

births %>% 
  unnest_tokens(word, description) %>% 
  anti_join(get_stopwords()) %>% 
  left_join(get_sentiments("afinn"))

# A tibble: 432 × 5
   year_birth person        year_death word       value
        <dbl> <chr>              <dbl> <chr>      <dbl>
 1       1468 Pope Paul III       1549 <NA>          NA
 2       1528 Albert V            1579 duke          NA
 3       1528 Albert V            1579 bavaria       NA
 4       1528 Domingo Báñez       1604 spanish       NA
 5       1528 Domingo Báñez       1604 theologian    NA
 6       1572 Edward Cecil        1638 1st           NA
 7       1572 Edward Cecil        1638 viscount      NA
 8       1572 Edward Cecil        1638 wimbledon     NA
 9       1576 Antonio Neri        1614 florentine    NA
10       1576 Antonio Neri        1614 priest        NA
# ℹ 422 more rows

events %>% 
  unnest_tokens(word, event) %>% 
  anti_join(get_stopwords()) %>% 
  left_join(get_sentiments("afinn"))

# A tibble: 418 × 3
    year word       value
   <dbl> <chr>      <dbl>
 1   888 odo           NA
 2   888 count         NA
 3   888 paris         NA
 4   888 crowned       NA
 5   888 king          NA
 6   888 west          NA
 7   888 francia       NA
 8   888 france        NA
 9   888 archbishop    NA
10   888 walter        NA
# ℹ 408 more rows

Here’s the words in the afinn object with the highest (most positive) sentiment

get_sentiments("afinn") %>% 
  arrange(desc(value)) 

# A tibble: 2,477 × 2
   word         value
   <chr>        <dbl>
 1 breathtaking     5
 2 hurrah           5
 3 outstanding      5
 4 superb           5
 5 thrilled         5
 6 amazing          4
 7 awesome          4
 8 brilliant        4
 9 ecstatic         4
10 euphoric         4
# ℹ 2,467 more rows
…
    births %>%
      tidytext::unnest_tokens(word, description) %>%
      anti_join(tidytext::get_stopwords(), "word") %>%
      left_join(demonym, c(word = "demonym")) %>%
      left_join(demonym, "geography", relationship = "many-to-many")
  )

births_nationality %>% count(geography) %>% arrange(-n)

# A tibble: 35 × 2
   geography         n
   <chr>         <int>
 1 <NA>            732
 2 united states   216
 3 australia        40
 4 england          39
 5 canada           24
 6 zealand          12
 7 spain            10
 8 wales             8
 9 france            6
10 turkey            6
# ℹ 25 more rows
…
