Jon Minton’s Blog - Tidy Tuesday: Christmas films
…
    Downloading file 1 of 2: `holiday_movies.csv`
    Downloading file 2 of 2: `holiday_movie_genres.csv`

--- Download complete ---

df1 <- tt[[1]]
df2 <- tt[[2]]

count of films by year

df1 %>%
  count(year, sort = TRUE)

# A tibble: 91 × 2
    year     n
   <dbl> <int>
 1  2021   183
 2  2022   173
 3  2020   172
 4  2019   143
 5  2018   129
 6  2023   107
 7  2017   102
 8  2015    76
 9  2016    75
10  2012    68
# ℹ 81 more rows
…
