Jon Minton’s Blog - Tardy Tuesday: Olympics
…
How many sports of which kinds?

Code

olympics %>% 
  count(sport, sort=T) 

# A tibble: 66 × 2
   sport                    n
   <chr>                <int>
 1 Athletics            38624
 2 Gymnastics           26707
 3 Swimming             23195
 4 Shooting             11448
 5 Cycling              10859
 6 Fencing              10735
 7 Rowing               10595
 8 Cross Country Skiing  9133
 9 Alpine Skiing         8829
10 Wrestling             7154
# ℹ 56 more rows

Events within the sport of athletics

Code

olympics %>% 
  filter(sport == "Athletics") %>% 
  count(event, sort=T) 

# A tibble: 83 × 2
   event                                      n
   <chr>                                  <int>
 1 Athletics Men's Marathon                2093
 2 Athletics Men's 100 metres              1936
 3 Athletics Men's 4 x 100 metres Relay    1910
 4 Athletics Men's 4 x 400 metres Relay    1749
 5 Athletics Men's 200 metres              1495
 6 Athletics Men's 400 metres              1417
 7 Athletics Men's 800 metres              1321
 8 Athletics Women's 4 x 100 metres Relay  1174
 9 Athletics Men's 1,500 metres            1162
10 Athletics Women's 100 metres            1063
# ℹ 73 more rows
…
olympics_dec <- olympics |>
    mutate(decade = round(year, -1)) |>
    mutate(bmi = weight / (height/100)^2) |>
    filter(!is.na(bmi)) |> 
    group_by(event, sex, decade) |>
    summarise(mean_bmi = mean(bmi), 
              min_bmi = min(bmi),
              max_bmi = max(bmi)) |>
    arrange(desc(mean_bmi))

olympics_dec |>
    distinct(event)

# A tibble: 612 × 2
# Groups:   event, sex [612]
   sex   event                                         
   <chr> <chr>                                         
 1 M     Weightlifting Men's Super-Heavyweight         
 2 M     Swimming Men's 100 metres Freestyle           
 3 F     Weightlifting Women's Super-Heavyweight       
 4 M     Bobsleigh Men's Two                           
 5 M     Weightlifting Men's Heavyweight               
 6 M     Judo Men's Heavyweight                        
 7 M     Wrestling Men's Super-Heavyweight, Greco-Roman
 8 F     Judo Women's Heavyweight                      
 9 M     Wrestling Men's Super-Heavyweight, Freestyle  
10 M     Athletics Men's Shot Put                      
# ℹ 602 more rows
…
