Jon Minton’s Blog - Edinbr Pair Programming
…
dta <- read_tsv(data_url)

Rows: 51864 Columns: 17
── Column specification ────────────────────────────────────────────────────────
Delimiter: "\t"
chr   (1): mnth
dbl  (15): BEN, CO, EBE, MXY, NMHC, NO_2, NOx, OXY, O_3, PM10, PXY, SO_2, TC...
dttm  (1): date

ℹ Use `spec()` to retrieve the full column specification for this data.
ℹ Specify the column types or set `show_col_types = FALSE` to quiet this message.

dta

# A tibble: 51,864 × 17
   date                  BEN     CO   EBE   MXY   NMHC  NO_2   NOx   OXY   O_3
   <dttm>              <dbl>  <dbl> <dbl> <dbl>  <dbl> <dbl> <dbl> <dbl> <dbl>
 1 2001-08-01 01:00:00 1.5   0.340  1.49   4.10 0.07    56.2  75.2 2.11  42.2 
 2 2001-08-01 02:00:00 0.870 0.0600 0.880  2.41 0.01    29.7  31.4 1.20  56.5 
 3 2001-08-01 03:00:00 0.660 0.02   0.610  1.60 0.01    22.8  22.5 0.800 64.1 
 4 2001-08-01 04:00:00 0.470 0.0400 0.410  1    0.02    31.6  34.8 0.470 60.8 
 5 2001-08-01 05:00:00 0.600 0.0400 0.670  1.68 0.01    30.9  32.5 0.740 65.6 
 6 2001-08-01 06:00:00 0.520 0.0900 0.460  1.27 0.01    66.7  78.0 0.590 41.7 
 7 2001-08-01 07:00:00 0.540 0.120  0.510  1.33 0.01    69.7  85.3 0.630 32.6 
 8 2001-08-01 08:00:00 0.910 0.430  0.730  1.91 0.0600  97.8 139.  0.970 17.0 
 9 2001-08-01 09:00:00 1.62  0.75   1.29   3.40 0.120  108   177   1.65   8.36
10 2001-08-01 10:00:00 2.85  1.65   2.60   6.89 0.210  110.  202.  3.27   8.38
# ℹ 51,854 more rows
# ℹ 7 more variables: PM10 <dbl>, PXY <dbl>, SO_2 <dbl>, TCH <dbl>, TOL <dbl>,
#   year <dbl>, mnth <chr>
…
`summarise()` has grouped output by 'yr'. You can override using the `.groups`
argument.

madrid_pollution

# A tibble: 72 × 3
      yr mnth  max_ebe
   <dbl> <ord>   <dbl>
 1  2001 Jan     11.7 
 2  2001 Feb     18.9 
 3  2001 Mar     15.6 
 4  2001 Apr     12.5 
 5  2001 May     14.7 
 6  2001 Jun     12.0 
 7  2001 Jul     73.0 
 8  2001 Aug      8.39
 9  2001 Sep     10.1 
10  2001 Oct     39.8 
# ℹ 62 more rows
…
