Jon Minton’s Blog - Getting started with the infer package
…
This is the essence of building a Null distribution using a permutation test, which is similar to a bootstrap except it involves resampling with replacement rather than without replacement.

We can perform this permutation test using the infer package as follows:

model <- gss |>
    specify(age ~ sex) |>
    hypothesize(null = 'independence') |>
    generate(reps = 10000, type = 'permute')

model

Response: age (numeric)
Explanatory: sex (factor)
Null Hypothesis: independence
# A tibble: 5,000,000 × 3
# Groups:   replicate [10,000]
     age sex    replicate
   <dbl> <fct>      <int>
 1    28 male           1
 2    52 female         1
 3    53 male           1
 4    31 male           1
 5    18 male           1
 6    42 female         1
 7    57 female         1
 8    48 female         1
 9    20 female         1
10    41 female         1
# ℹ 4,999,990 more rows
…
