Jon Minton’s Blog - Double Tardy Tuesday
…
# split TotalIssues and Member into issues data

appearances <- mutant_moneyball |>
  select(Member, contains("ssues")) |>
  pivot_longer(!Member) |>
  mutate(first = str_to_title(str_extract(Member, "^[[:lower:]]*"))) |>
  mutate(last = str_remove(Member, "^[[:lower:]]*" )) |>
  mutate(Member = paste(first, last), .keep="unused") 

appearances |>
  filter(name == "TotalIssues") |>
  arrange(desc(value))

# A tibble: 26 × 3
   Member             name        value
   <chr>              <chr>       <dbl>
 1 Scott Summers      TotalIssues   197
 2 Ororo Munroe       TotalIssues   190
 3 Peter Rasputin     TotalIssues   169
 4 Charles Xavier     TotalIssues   169
 5 Logan Howlett      TotalIssues   167
 6 Jean Grey          TotalIssues   164
 7 Warren Worthington TotalIssues   139
 8 Bobby Drake        TotalIssues   123
 9 Kurt Wagner        TotalIssues   120
10 Hank McCoy         TotalIssues   119
# ℹ 16 more rows

best_xm <- appearances |>
  slice_max(value, n=10) |>
  pull(Member)

appearances |>
  mutate(first = str_to_title(str_extract(Member, "^[[:lower:]]*"))) |>
  mutate(last = str_remove(Member, "^[[:lower:]]*" )) |>
  mutate(Member = paste(first, last), .keep="unused") 

# A tibble: 130 × 3
   Member                name           value
   <chr>                 <chr>          <dbl>
 1 " Warren Worthington" TotalIssues      139
 2 " Warren Worthington" TotalIssues60s    61
 3 " Warren Worthington" TotalIssues70s    35
 4 " Warren Worthington" TotalIssues80s    20
 5 " Warren Worthington" TotalIssues90s    23
 6 " Hank McCoy"         TotalIssues      119
 7 " Hank McCoy"         TotalIssues60s    62
 8 " Hank McCoy"         TotalIssues70s    38
 9 " Hank McCoy"         TotalIssues80s     9
10 " Hank McCoy"         TotalIssues90s    10
# ℹ 120 more rows
…
