Jon Minton’s Blog - Tidy Tuesday 30 Jan 2024: Groundhogs
…
ℹ Use `spec()` to retrieve the full column specification for this data.
ℹ Specify the column types or set `show_col_types = FALSE` to quiet this message.

We now have the two datasets in separate objects. Let’s look at some of the information in the description field

Code

groundhogs |>
  filter(!is_groundhog) |>
  select(description)

# A tibble: 43 × 1
   description                                                                  
   <chr>                                                                        
 1 Octoraro Orphie, from Quarryville Pennsylvania, is a taxidermied world-renow…
 2 Concord Charlie is a presumed groundhog from Athens, West Virginia. In a tra…
 3 Lander Lil, a bronze statue of a prairie dog, has been predicting the future…
 4 Groundhog puppet Manitoba Merv has been predicting the arrival of spring at …
 5 Schnogadahl Sammi is a literally unpronounceable taxidermied groundhog mount…
 6 Poor Richard is a taxidermied groundhog who prognosticates for the Slumberin…
 7 Balzac Billy is the “Prairie Prognosticator”, a man-sized gopher mascot who …
 8 Every year on February 2nd, Myerstown’s favorite groundhog “Uni” is placed o…
 9 Grover the Groundhog and Sweet Arrow Sue are a taxidermied groundhog couple …
10 Stormy Marmot is a plush yellow-bellied marmot from Aurora, Colorado. He is …
# ℹ 33 more rows
…
Code

# dat |>
#   pluck(1) |>
#   left_join(groundhogs) 
predictions |> 
    left_join(groundhogs)

Joining with `by = join_by(id)`

# A tibble: 1,462 × 20
      id  year shadow details         slug  shortname name  city  region country
   <dbl> <dbl> <lgl>  <chr>           <chr> <chr>     <chr> <chr> <chr>  <chr>  
 1     1  1886 NA     Groundhog Day … punx… Phil      Punx… Punx… Penns… USA    
 2     1  1887 TRUE   First Official… punx… Phil      Punx… Punx… Penns… USA    
 3     1  1888 TRUE   Saw Shadow.     punx… Phil      Punx… Punx… Penns… USA    
 4     1  1889 NA     No Record.      punx… Phil      Punx… Punx… Penns… USA    
 5     1  1890 FALSE  No Shadow.      punx… Phil      Punx… Punx… Penns… USA    
 6     1  1891 NA     No Record.      punx… Phil      Punx… Punx… Penns… USA    
 7     1  1892 NA     No Record.      punx… Phil      Punx… Punx… Penns… USA    
 8     1  1893 NA     No Record.      punx… Phil      Punx… Punx… Penns… USA    
 9     1  1894 NA     No Record.      punx… Phil      Punx… Punx… Penns… USA    
10     1  1895 NA     No Record.      punx… Phil      Punx… Punx… Penns… USA    
# ℹ 1,452 more rows
# ℹ 10 more variables: latitude <dbl>, longitude <dbl>, source <chr>,
#   current_prediction <chr>, is_groundhog <lgl>, type <chr>, active <lgl>,
#   description <chr>, image <chr>, predictions_count <dbl>
…
