Jon Minton’s Blog - Tidy Tuesday: Solar Eclipses
…
data_tidied <- bind_rows(
    list(eclipse_annular_2023, eclipse_partial_2023, eclipse_total_2024, eclipse_partial_2024)
) |>
    mutate(event_number = str_remove(event_number, "eclipse_") %>% as.numeric())

data_tidied

# A tibble: 325,881 × 8
   state name           lat   lon  year type    event_number event_datetime
   <chr> <chr>        <dbl> <dbl> <dbl> <chr>          <dbl> <time>        
 1 AZ    Chilchinbito  36.5 -110.  2023 annular            1 15:10:50      
 2 AZ    Chilchinbito  36.5 -110.  2023 annular            2 15:56:20      
 3 AZ    Chilchinbito  36.5 -110.  2023 annular            3 16:30:29      
 4 AZ    Chilchinbito  36.5 -110.  2023 annular            4 16:33:31      
 5 AZ    Chilchinbito  36.5 -110.  2023 annular            5 17:09:40      
 6 AZ    Chilchinbito  36.5 -110.  2023 annular            6 18:02:10      
 7 AZ    Chinle        36.2 -110.  2023 annular            1 15:11:10      
 8 AZ    Chinle        36.2 -110.  2023 annular            2 15:56:50      
 9 AZ    Chinle        36.2 -110.  2023 annular            3 16:31:21      
10 AZ    Chinle        36.2 -110.  2023 annular            4 16:34:06      
# ℹ 325,871 more rows
…
