Jon Minton’s Blog - Part Twenty Three: Time series and seasonality
…
Now some seasonal data

Code

# Using this example dataset: https://otexts.com/fpp3/components.html
data(us_employment)
us_retail_employment <- us_employment |>
  filter(Title == "Retail Trade")

us_retail_employment

# A tsibble: 969 x 4 [1M]
# Key:       Series_ID [1]
      Month Series_ID     Title        Employed
      <mth> <chr>         <chr>           <dbl>
 1 1939 Jan CEU4200000001 Retail Trade    3009 
 2 1939 Feb CEU4200000001 Retail Trade    3002.
 3 1939 Mar CEU4200000001 Retail Trade    3052.
 4 1939 Apr CEU4200000001 Retail Trade    3098.
 5 1939 May CEU4200000001 Retail Trade    3123 
 6 1939 Jun CEU4200000001 Retail Trade    3141.
 7 1939 Jul CEU4200000001 Retail Trade    3100 
 8 1939 Aug CEU4200000001 Retail Trade    3092.
 9 1939 Sep CEU4200000001 Retail Trade    3191.
10 1939 Oct CEU4200000001 Retail Trade    3242.
# ℹ 959 more rows
…
