Jon Minton’s Blog - Part Twelve: Honest Predictions the slightly-less easier way
…
Previously we showed how to extract (estimates of) these two quantities from optim(), where the first quantity, \(\dot{\theta}\), was taken from the converged parameter point estimate slot par, and the second quantity, \(\Sigma\), was derived from the hessian slot.

But we don’t need to use optim() directly in order to recover these quantities. Instead we can get them from the standard model objects produced by either lm() or glm(). Let’s check this out…

Building our model

Let’s load the data and model we arrived at previously

Code

library(tidyverse)
df <- ToothGrowth |> tibble()
df

# A tibble: 60 × 3
     len supp   dose
   <dbl> <fct> <dbl>
 1   4.2 VC      0.5
 2  11.5 VC      0.5
 3   7.3 VC      0.5
 4   5.8 VC      0.5
 5   6.4 VC      0.5
 6  10   VC      0.5
 7  11.2 VC      0.5
 8  11.2 VC      0.5
 9   5.2 VC      0.5
10   7   VC      0.5
# ℹ 50 more rows
…
predictions_df <- 
    tibble(
        x0 = predictions_ev_x0,
        x1 = predictions_ev_x1
    ) |>
    mutate(
        fd = x1 - x0
    )

predictions_df

# A tibble: 10,000 × 3
      x0    x1     fd
   <dbl> <dbl>  <dbl>
 1  22.8  20.4 -2.34 
 2  23.2  20.6 -2.57 
 3  21.2  20.9 -0.334
 4  23.2  20.0 -3.21 
 5  22.4  20.5 -1.92 
 6  22.5  19.6 -2.84 
 7  22.1  20.0 -2.17 
 8  23.4  20.3 -3.17 
 9  21.7  19.9 -1.78 
10  21.8  20.0 -1.85 
# ℹ 9,990 more rows
…
