Jon Minton’s Blog - Tidy Tuesday 23 April 2024: Space objects
…
Generally, when an entity has a ‘code’, it is a country (though contains some other aggregations, like whole world, as well)

Code

outer_space_object %>% 
  filter(!is.na(Code)) %>% 
  distinct(Entity) %>% 
  arrange(desc(Entity))

# A tibble: 97 × 1
   Entity              
   <chr>               
 1 Zimbabwe            
 2 World               
 3 Vietnam             
 4 Venezuela           
 5 Uruguay             
 6 United States       
 7 United Kingdom      
 8 United Arab Emirates
 9 Ukraine             
10 Uganda              
# ℹ 87 more rows

We decided to use janitor::clean_names to avoid having to remember the case of columns.

Code

outer_space_objects <- outer_space_object %>% 
  clean_names()
outer_space_objects

# A tibble: 1,175 × 4
   entity  code   year num_objects
   <chr>   <chr> <dbl>       <dbl>
 1 APSCO   <NA>   2023           1
 2 Algeria DZA    2002           1
 3 Algeria DZA    2010           1
 4 Algeria DZA    2016           3
 5 Algeria DZA    2017           1
 6 Angola  AGO    2017           1
 7 Angola  AGO    2022           1
 8 Arabsat <NA>   1985           2
 9 Arabsat <NA>   1992           1
10 Arabsat <NA>   1996           2
# ℹ 1,165 more rows
…
