Jon Minton’s Blog - Part Seventeen: Causal Inference: Controlling and Matching Approaches
…
This post will go explore some application of the first two approaches: controlling for variables using multiple regression; and using matching methods. A fuller consideration of the issues is provided in Ho et al. (2007), and the main package and dataset used will be that of the associated MatchIt package Ho et al. (2011) and vignette using the lalonde dataset.

Getting started

We start by loading the Matchit package and exploring the lalonde dataset.

Code

library(tidyverse)
library(MatchIt)
unmatched_data <- tibble(lalonde)

unmatched_data

# A tibble: 614 × 9
   treat   age  educ race   married nodegree  re74  re75   re78
   <int> <int> <int> <fct>    <int>    <int> <dbl> <dbl>  <dbl>
 1     1    37    11 black        1        1     0     0  9930.
 2     1    22     9 hispan       0        1     0     0  3596.
 3     1    30    12 black        0        0     0     0 24909.
 4     1    27    11 black        0        1     0     0  7506.
 5     1    33     8 black        0        1     0     0   290.
 6     1    22     9 black        0        1     0     0  4056.
 7     1    23    12 black        0        0     0     0     0 
 8     1    32    11 black        0        1     0     0  8472.
 9     1    22    16 black        0        0     0     0  2164.
10     1    33    12 white        1        0     0     0 12418.
# ℹ 604 more rows
…
Estimating Treatment Effect Sizes after matching

Historically, the MatchIt package was designed to work seamlessly with Zelig, which made it much easier to use a single library and framework to produce ‘quantities of interest’ using multiple model structures. However Zelig has since been deprecated, meaning the vignette now recommends using the marginaleffects package. We’ll follow their lead:

First the vignette recommends extracting matched data from the matchit output:

Code

m.data <- match.data(m.out1)

m.data <- as_tibble(m.data)
m.data

# A tibble: 370 × 12
   treat   age  educ race   married nodegree  re74  re75   re78 distance weights
   <int> <int> <int> <fct>    <int>    <int> <dbl> <dbl>  <dbl>    <dbl>   <dbl>
 1     1    37    11 black        1        1     0     0  9930.   0.639        1
 2     1    22     9 hispan       0        1     0     0  3596.   0.225        1
 3     1    30    12 black        0        0     0     0 24909.   0.678        1
 4     1    27    11 black        0        1     0     0  7506.   0.776        1
 5     1    33     8 black        0        1     0     0   290.   0.702        1
 6     1    22     9 black        0        1     0     0  4056.   0.699        1
 7     1    23    12 black        0        0     0     0     0    0.654        1
 8     1    32    11 black        0        1     0     0  8472.   0.790        1
 9     1    22    16 black        0        0     0     0  2164.   0.780        1
10     1    33    12 white        1        0     0     0 12418.   0.0429       1
# ℹ 360 more rows
# ℹ 1 more variable: subclass <fct>
…
