Jon Minton’s Blog - Tidy Tuesday: Roaming US Holidays
…
any_day(2024, "January 15–21", "3rd monday")

[1] "2024-01-15"

movers <- federal_holidays |>
  filter(date_definition != "fixed date") |>
  expand_grid(year = 1983:2024) 

movers <- movers |>
  bind_cols(actual_date = pmap_vec(list(year = movers$year, date = movers$date, date_definition = movers$date_definition), any_day))

movers

# A tibble: 252 × 8
   date  date_definition official_name year_established date_established details
   <chr> <chr>           <chr>                    <dbl> <date>           <chr>  
 1 Janu… 3rd monday      Birthday of …             1983 1983-11-02       Honors…
 2 Janu… 3rd monday      Birthday of …             1983 1983-11-02       Honors…
 3 Janu… 3rd monday      Birthday of …             1983 1983-11-02       Honors…
 4 Janu… 3rd monday      Birthday of …             1983 1983-11-02       Honors…
 5 Janu… 3rd monday      Birthday of …             1983 1983-11-02       Honors…
 6 Janu… 3rd monday      Birthday of …             1983 1983-11-02       Honors…
 7 Janu… 3rd monday      Birthday of …             1983 1983-11-02       Honors…
 8 Janu… 3rd monday      Birthday of …             1983 1983-11-02       Honors…
 9 Janu… 3rd monday      Birthday of …             1983 1983-11-02       Honors…
10 Janu… 3rd monday      Birthday of …             1983 1983-11-02       Honors…
# ℹ 242 more rows
# ℹ 2 more variables: year <int>, actual_date <date>
