Tidy Tuesday: English Monarchs – Jon Minton’s Blog
…
The age gap between kings and consorts appears to have been falling from around 1500. (Note: neither of King Charles’ consorts are in the dataset as he was not a king at the time of either marriage)

Was there any obvious tendency for English Kings to have multiple wives, and - like Leo DeCaprio - keep partnering with young women as they age?

Code

mar_tidy |> 
  group_by(king_name) |> 
  mutate(king_count = n()) |> 
  filter(king_count > 1) |> 
  filter(year_of_marriage > 1000) 

# A tibble: 25 × 6
# Groups:   king_name [11]
   king_name       king_age consort_name consort_age year_of_marriage king_count
   <chr>              <dbl> <chr>              <dbl>            <dbl>      <int>
 1 Æthelred the U…       34 Emma of Nor…          17             1002          2
 2 Cnut                  18 Aelfgifu of…          NA             1013          2
 3 Cnut                  22 Emma of Nor…          NA             1017          2
 4 Harold Godwins…       24 Edith Swann…          19             1044          2
 5 Harold Godwins…       42 Ealdgyth              NA             1064          2
 6 Henry I               32 Matilda of …          20             1100          2
 7 Henry I               53 Adeliza of …          18             1121          2
 8 John                  23 Isabel of G…          16             1189          2
 9 John                  34 Isabella of…          12             1200          2
10 Edward I              15 Eleanor of …          13             1254          2
# ℹ 15 more rows
…
