Tidy Tuesday on Valentine’s Day – Jon Minton's Blog
…
Code

historical_spending_pivoted <- historical_spending |>
  pivot_longer(!c(Year, PercentCelebrating, PerPerson)) |>
  group_by(Year) |>
  mutate(sum = sum(value), 
         other_spend = PerPerson-sum
  ) |>
  select(-sum) |>
  pivot_wider() |>
  pivot_longer(!c(Year, PercentCelebrating, PerPerson))

historical_spending_pivoted

# A tibble: 104 × 5
# Groups:   Year [13]
    Year PercentCelebrating PerPerson name          value
   <dbl>              <dbl>     <dbl> <chr>         <dbl>
 1  2010                 60      103  other_spend   11.5 
 2  2010                 60      103  Candy          8.6 
 3  2010                 60      103  Flowers       12.3 
 4  2010                 60      103  Jewelry       21.5 
 5  2010                 60      103  GreetingCards  5.91
 6  2010                 60      103  EveningOut    23.8 
 7  2010                 60      103  Clothing      10.9 
 8  2010                 60      103  GiftCards      8.42
 9  2011                 58      116. other_spend   10.5 
10  2011                 58      116. Candy         10.8 
# ℹ 94 more rows
…
