Jon Minton’s Blog - Time and (state) change
…
require(readxl)

# getwd()
# list.files()
lifetable_male_latest <- readxl::read_excel(
    # path = 'posts/glms/one-off/time-and-change/nltuk198020203.xlsx',
   path = 'nltuk198020203.xlsx',
    sheet = '2019-2021',
    range = 'A6:F107'
)

lifetable_male_latest

# A tibble: 101 × 6
     age       mx       qx      lx    dx    ex
   <dbl>    <dbl>    <dbl>   <dbl> <dbl> <dbl>
 1     0 0.00431  0.00430  100000  430.   78.7
 2     1 0.000224 0.000224  99570.  22.3  78.0
 3     2 0.000137 0.000137  99548.  13.6  77.1
 4     3 0.000107 0.000107  99534.  10.7  76.1
 5     4 0.000071 0.000071  99523.   7.1  75.1
 6     5 0.000073 0.000073  99516.   7.3  74.1
 7     6 0.000077 0.000077  99509.   7.6  73.1
 8     7 0.00007  0.00007   99501.   7    72.1
 9     8 0.000068 0.000068  99494.   6.8  71.1
10     9 0.000065 0.000065  99487.   6.4  70.1
# ℹ 91 more rows
…
# Everyone is either alive or dead, so everyone who's not alive by a given age must be dead
# Cumulative mortality vector
H_x <- 1 - S_x

mini_lifetable <- 
    mini_lifetable %>%
    mutate(S_x = S_x, H_x = H_x)

mini_lifetable

# A tibble: 101 × 4
       x       qx   S_x     H_x
   <dbl>    <dbl> <dbl>   <dbl>
 1     0 0.00430  1     0      
 2     1 0.000224 0.996 0.00430
 3     2 0.000137 0.995 0.00453
 4     3 0.000107 0.995 0.00466
 5     4 0.000071 0.995 0.00477
 6     5 0.000073 0.995 0.00484
 7     6 0.000077 0.995 0.00491
 8     7 0.00007  0.995 0.00499
 9     8 0.000068 0.995 0.00506
10     9 0.000065 0.995 0.00513
# ℹ 91 more rows
…
