Jon Minton’s Blog - Part Eleven: Honest Predictions the easier way
…
Linear regression example

Let’s start with one of the built-in datasets, ToothGrowth, which is described as follows:

The response is the length of odontoblasts (cells responsible for tooth growth) in 60 guinea pigs. Each animal received one of three dose levels of vitamin C (0.5, 1, and 2 mg/day) by one of two delivery methods, orange juice or ascorbic acid (a form of vitamin C and coded as VC).

Let’s load the dataset and visualise

Code

library(tidyverse)
df <- ToothGrowth |> tibble()
df

# A tibble: 60 × 3
     len supp   dose
   <dbl> <fct> <dbl>
 1   4.2 VC      0.5
 2  11.5 VC      0.5
 3   7.3 VC      0.5
 4   5.8 VC      0.5
 5   6.4 VC      0.5
 6  10   VC      0.5
 7  11.2 VC      0.5
 8  11.2 VC      0.5
 9   5.2 VC      0.5
10   7   VC      0.5
# ℹ 50 more rows
…
The simplest approach to getting model predictions is to use the predict function, passing it a dataframe of values for which we want predictions:

Code

predictor_df <- expand_grid(
    supp = c('VC', 'OJ'), 
    dose = seq(0.25, 2.25, by = 0.01)
)
preds_predictors_df <- predictor_df |>
    mutate(pred_len = predict(mod_03a, predictor_df))

preds_predictors_df

# A tibble: 402 × 3
   supp   dose pred_len
   <chr> <dbl>    <dbl>
 1 VC     0.25   -1.20 
 2 VC     0.26   -0.683
 3 VC     0.27   -0.189
 4 VC     0.28    0.288
 5 VC     0.29    0.748
 6 VC     0.3     1.19 
 7 VC     0.31    1.62 
 8 VC     0.32    2.04 
 9 VC     0.33    2.44 
10 VC     0.34    2.83 
# ℹ 392 more rows
…
